<svg width="10" height="10" viewBox="0 0 10 10" fill="none" xmlns="http://www.w3.org/2000/svg">
<path d="M8.93821 2.63048C8.35274 2.63048 7.87643 3.10679 7.87643 3.69226C7.87643 3.90579 7.94 4.10464 8.04891 4.2713L6.90178 5.41843C6.7351 5.30952 6.53626 5.24595 6.32272 5.24595C6.10145 5.24595 5.89581 5.31407 5.72554 5.43034L4.56659 4.27122C4.67548 4.10456 4.73901 3.90573 4.73901 3.69224C4.73901 3.10677 4.26271 2.63046 3.67724 2.63046C3.09177 2.63046 2.61546 3.10677 2.61546 3.69224C2.61546 3.90573 2.67902 4.1045 2.78787 4.27116L1.6407 5.41835C1.47406 5.30948 1.27525 5.24595 1.06178 5.24595C0.476308 5.24595 0 5.72227 0 6.30774C0 6.89321 0.476308 7.36952 1.06178 7.36952C1.64724 7.36952 2.12355 6.89321 2.12355 6.30774C2.12355 6.09421 2.05998 5.89536 1.95107 5.72868L3.0982 4.58155C3.26488 4.69046 3.46372 4.75403 3.67726 4.75403C3.89077 4.75403 4.08962 4.69046 4.25628 4.58155L5.42163 5.74706C5.31995 5.90991 5.26097 6.10202 5.26097 6.30772C5.26097 6.89319 5.73727 7.3695 6.32274 7.3695C6.90821 7.3695 7.38452 6.89319 7.38452 6.30772C7.38452 6.09423 7.32096 5.89544 7.21211 5.7288L8.3593 4.58161C8.52596 4.69048 8.72477 4.75401 8.93822 4.75401C9.52369 4.75401 10 4.27771 10 3.69224C10 3.10675 9.52367 2.63048 8.93821 2.63048ZM1.06178 6.93063C0.718299 6.93063 0.438866 6.6512 0.438866 6.30774C0.438866 5.96427 0.718299 5.68483 1.06178 5.68483C1.40523 5.68483 1.68468 5.96427 1.68468 6.30774C1.68468 6.6512 1.40525 6.93063 1.06178 6.93063ZM3.67726 4.31515C3.3338 4.31515 3.05435 4.03571 3.05435 3.69224C3.05435 3.34878 3.33378 3.06933 3.67726 3.06933C4.02073 3.06933 4.30017 3.34876 4.30017 3.69224C4.30017 4.03571 4.02073 4.31515 3.67726 4.31515ZM6.32272 6.93063C5.97927 6.93063 5.69981 6.6512 5.69981 6.30772C5.69981 5.96425 5.97925 5.68481 6.32272 5.68481C6.66618 5.68481 6.94563 5.96425 6.94563 6.30772C6.94561 6.6512 6.66618 6.93063 6.32272 6.93063ZM8.93821 4.31515C8.59475 4.31515 8.3153 4.03571 8.3153 3.69224C8.3153 3.34878 8.59473 3.06933 8.93821 3.06933C9.28166 3.06933 9.56111 3.34876 9.56111 3.69224C9.56111 4.03571 9.28166 4.31515 8.93821 4.31515Z" fill="white"/>
<path d="M3.45261 5.32649C3.36691 5.24081 3.22798 5.24081 3.14228 5.32649L2.69591 5.77286C2.61023 5.85854 2.61023 5.99749 2.69593 6.08319C2.73878 6.12604 2.79494 6.14747 2.85109 6.14747C2.90724 6.14747 2.96341 6.12602 3.00624 6.08319L3.45261 5.63682C3.53833 5.55114 3.53833 5.41218 3.45261 5.32649Z" fill="white"/>
<path d="M7.30394 3.9246C7.21824 3.83891 7.07933 3.83891 6.99359 3.92462L6.54723 4.37099C6.46155 4.45667 6.46155 4.59562 6.54723 4.68132C6.5901 4.72415 6.64626 4.74558 6.70241 4.74558C6.75858 4.74558 6.81471 4.72413 6.85756 4.6813L7.30392 4.23493C7.38962 4.14923 7.38962 4.01028 7.30394 3.9246Z" fill="white"/>
</svg>
