<?xml version="1.0" encoding="UTF-8" standalone="no"?>
<svg
   xmlns:dc="http://purl.org/dc/elements/1.1/"
   xmlns:cc="http://creativecommons.org/ns#"
   xmlns:rdf="http://www.w3.org/1999/02/22-rdf-syntax-ns#"
   xmlns:svg="http://www.w3.org/2000/svg"
   xmlns="http://www.w3.org/2000/svg"
   xmlns:sodipodi="http://sodipodi.sourceforge.net/DTD/sodipodi-0.dtd"
   xmlns:inkscape="http://www.inkscape.org/namespaces/inkscape"
   width="16.10581"
   height="16.000036"
   viewBox="0 0 16.10581 16.000036"
   version="1.1"
   id="svg13"
   sodipodi:docname="table-first.svg"
   style="fill:none"
   inkscape:version="0.92.3 (2405546, 2018-03-11)">
  <metadata
     id="metadata17">
    <rdf:RDF>
      <cc:Work
         rdf:about="">
        <dc:format>image/svg+xml</dc:format>
        <dc:type
           rdf:resource="http://purl.org/dc/dcmitype/StillImage" />
        <dc:title></dc:title>
      </cc:Work>
    </rdf:RDF>
  </metadata>
  <sodipodi:namedview
     pagecolor="#ffffff"
     bordercolor="#666666"
     borderopacity="1"
     objecttolerance="10"
     gridtolerance="10"
     guidetolerance="10"
     inkscape:pageopacity="0"
     inkscape:pageshadow="2"
     inkscape:window-width="716"
     inkscape:window-height="480"
     id="namedview15"
     showgrid="false"
     fit-margin-top="0"
     fit-margin-left="0"
     fit-margin-right="0"
     fit-margin-bottom="0"
     inkscape:zoom="12.421053"
     inkscape:cx="8.334656"
     inkscape:cy="8.5000391"
     inkscape:window-x="0"
     inkscape:window-y="0"
     inkscape:window-maximized="0"
     inkscape:current-layer="svg13" />
  <path
     d="M 7.927436,9.6667087e-4 C 12.382056,-0.06660333 16.018056,3.4164667 16.104256,7.8415367 c 0.0127,0.64966 -0.0527,1.28206 -0.1874,1.88866 -0.228,1.0270003 -0.3635,2.0722003 -0.3635,3.1239003 v 2.033 c 0,0.3115 -0.2542,0.564 -0.5677,0.564 h -2.0465 c -1.0587,0 -2.1108,0.1347 -3.14461,0.3612 -0.61057,0.1338 -1.24713,0.1988 -1.90105,0.1862 -4.45435,-0.0857 -7.96047095,-3.6975 -7.89252495025,-8.1228603 C 0.06725005,3.5561867 3.579476,0.06696667 7.927436,9.6667087e-4 Z"
     id="path2"
     inkscape:connector-curvature="0"
     style="fill:url(#paint0_linear)" />
  <path
     d="m 9.367796,6.0468767 c -0.13021,0 -0.25521,-0.04948 -0.375,-0.14844 -0.11458,-0.09896 -0.17187,-0.22396 -0.17187,-0.375 0,-0.22917 0.10937,-0.48438 0.32812,-0.76563 0.21875,-0.28125 0.44531,-0.42187 0.67969,-0.42187 0.15622,0 0.28642,0.04948 0.39062,0.14844 0.1042,0.09374 0.1563,0.23177 0.1563,0.41406 0,0.22396 -0.1068,0.47135 -0.3204,0.74218 -0.2135,0.27084 -0.44267,0.40626 -0.68746,0.40626 z m 0.53126,3.49222 v 0.5703003 c -0.50522,0.651 -0.97657,1.1432 -1.41407,1.4765 -0.4375,0.3282 -0.8099,0.4922 -1.11719,0.4922 -0.42708,0 -0.74479,-0.2239 -0.95312,-0.6719 -0.20834,-0.4479 -0.3125,-0.9374 -0.3125,-1.4687003 0,-0.2031 0.02083,-0.3958 0.0625,-0.5781 0.04166,-0.1875 0.09114,-0.3412 0.14843,-0.461 0.0573,-0.1198 0.16407,-0.3073 0.32032,-0.5625 0.73958,-1.151 1.41666,-1.72652 2.03125,-1.72652 0.31771,0 0.47656,0.12239 0.47656,0.36718 0,0.16667 -0.10417,0.42709 -0.3125,0.78125 -0.20313,0.35419 -0.38542,0.60679 -0.54688,0.75779 -0.45312,0.4375 -0.75,0.7422 -0.89062,0.9141 -0.13542,0.1719 -0.20313,0.3672 -0.20313,0.5859003 0,0.1875 0.07032,0.3438 0.21094,0.4688 0.14063,0.125 0.32292,0.1875 0.54688,0.1875 0.24479,0 0.51302,-0.0886 0.80468,-0.2657 0.29688,-0.1822 0.67969,-0.4713003 1.14845,-0.8671003 z"
     id="path4"
     inkscape:connector-curvature="0"
     style="fill:#ffffff" />
  <defs
     id="defs11">
    <linearGradient
       id="paint0_linear"
       x1="-0.306638"
       y1="12.4567"
       x2="10.6184"
       y2="23.454"
       gradientUnits="userSpaceOnUse"
       gradientTransform="translate(-0.16534395,-2.0000033)">
      <stop
         stop-color="#62E1FB"
         id="stop6" />
      <stop
         offset="1"
         stop-color="#00A2F3"
         id="stop8" />
    </linearGradient>
  </defs>
</svg>
